{
    "file_format_version" : "1.0.0",
    "layer" : {
        "name": "VK_LAYER_LUNARG_api_dump",
        "type": "GLOBAL",
        "library_path": "libVkLayer_api_dump.so",
        "api_version": "1.0.42",
        "implementation_version": "2",
        "description": "LunarG debug layer"
    }
}
